BANA 4137 Project 1
…
##   Is.cancel count
## 1         0  7385
## 2         1   378

8.2 What is the Avg delay ?

total_dataframe %>%
  group_by(ORIGIN_AIRPORT) %>%
  summarize(avg_delay = mean(AIRLINE_DELAY, na.rm = TRUE))

## # A tibble: 38 x 2
##    ORIGIN_AIRPORT avg_delay
##    <chr>              <dbl>
##  1 ATL                 19.7
##  2 BDL                NaN  
##  3 BNA                 30  
##  4 BOS                 11  
##  5 CLT                  4  
##  6 CVG                 15.7
##  7 DEN                 17.0
##  8 DFW                 16.8
##  9 DTW                 20.2
## 10 EWR                 14.0
## #  with 28 more rows
…
